%YAML 1.1
%TAG !u! tag:unity3d.com,2011:
--- !u!114 &11400000
MonoBehaviour:
  m_ObjectHideFlags: 0
  m_CorrespondingSourceObject: {fileID: 0}
  m_PrefabInstance: {fileID: 0}
  m_PrefabAsset: {fileID: 0}
  m_GameObject: {fileID: 0}
  m_Enabled: 1
  m_EditorHideFlags: 0
  m_Script: {fileID: 11500000, guid: 165b8a63febdb6f4b9aa92030e079762, type: 3}
  m_Name: ADC32B58-003B-4E39-A0B2-A1AD87285C2C
  m_EditorClassIdentifier: 
  objectName: wind
  id: 1537061107
  guid: ADC32B58-003B-4E39-A0B2-A1AD87285C2C
