%YAML 1.1
%TAG !u! tag:unity3d.com,2011:
--- !u!114 &11400000
MonoBehaviour:
  m_ObjectHideFlags: 0
  m_CorrespondingSourceObject: {fileID: 0}
  m_PrefabInstance: {fileID: 0}
  m_PrefabAsset: {fileID: 0}
  m_GameObject: {fileID: 0}
  m_Enabled: 1
  m_EditorHideFlags: 0
  m_Script: {fileID: 11500000, guid: 27ab574e73808894aa75501f01e0330e, type: 3}
  m_Name: AkWwiseInitializationSettings
  m_EditorClassIdentifier: 
  PlatformSettingsNameList:
  - Android
  - Mac
  - Windows
  PlatformSettingsList:
  - {fileID: 11400000, guid: 7c0482067cfe661498872961707f82f0, type: 2}
  - {fileID: 11400000, guid: 2c0d7aa916e85dd4bb4c300edb58394b, type: 2}
  - {fileID: 11400000, guid: 330d6bd5c7e27b845a2e73755041ed02, type: 2}
  InvalidReferencePlatforms: []
  UserSettings:
    m_BasePath: Audio\GeneratedSoundBanks
    m_StartupLanguage: English(US)
    m_EngineLogging: 1
    m_MaximumNumberOfPositioningPaths: 255
    m_CommandQueueSize: 262144
    m_SamplesPerFrame: 1024
    m_MainOutputSettings:
      m_AudioDeviceShareset: 
      m_DeviceID: 0
      m_PanningRule: 0
      m_ChannelConfig:
        m_ChannelConfigType: 0
        m_ChannelMask: 0
        m_NumberOfChannels: 0
    m_StreamingLookAheadRatio: 1
    m_SampleRate: 44100
    m_NumberOfRefillsInVoice: 4
    m_SpatialAudioSettings:
      m_MaxSoundPropagationDepth: 8
      m_MovementThreshold: 0.1
      m_NumberOfPrimaryRays: 100
      m_MaxReflectionOrder: 1
      m_MaxPathLength: 100
      m_CPULimitPercentage: 0
      m_EnableDiffractionOnReflections: 1
      m_EnableGeometricDiffractionAndTransmission: 1
      m_CalcEmitterVirtualPosition: 1
      m_UseObstruction: 1
      m_UseOcclusion: 1
  AdvancedSettings:
    m_IOMemorySize: 2097152
    m_TargetAutoStreamBufferLengthMs: 380
    m_UseStreamCache: 0
    m_MaximumPinnedBytesInCache: 4294967295
    m_EnableGameSyncPreparation: 0
    m_ContinuousPlaybackLookAhead: 1
    m_MonitorQueuePoolSize: 1048576
    m_MaximumHardwareTimeoutMs: 1000
    m_DebugOutOfRangeCheckEnabled: 0
    m_DebugOutOfRangeLimit: 16
    m_RenderDuringFocusLoss: 0
    m_SoundBankPersistentDataPath: 
    m_UseAsyncOpen: 0
    m_MemoryAllocationSizeLimit: 0
    m_MemoryDebugLevel: 0
  CommsSettings:
    m_PoolSize: 262144
    m_DiscoveryBroadcastPort: 24024
    m_CommandPort: 0
    m_NotificationPort: 0
    m_InitializeSystemComms: 1
    m_NetworkName: 
    m_commSystem: 0
