%YAML 1.1
%TAG !u! tag:unity3d.com,2011:
--- !u!114 &11400000
MonoBehaviour:
  m_ObjectHideFlags: 0
  m_CorrespondingSourceObject: {fileID: 0}
  m_PrefabInstance: {fileID: 0}
  m_PrefabAsset: {fileID: 0}
  m_GameObject: {fileID: 0}
  m_Enabled: 1
  m_EditorHideFlags: 0
  m_Script: {fileID: 11500000, guid: 7b59904b4f28e63409555c2c41816134, type: 3}
  m_Name: B086A5A9-F204-4C53-A838-BDB18B18F6D6
  m_EditorClassIdentifier: 
  objectName: Brick
  id: 504532776
  guid: B086A5A9-F204-4C53-A838-BDB18B18F6D6
